de\mayer\einmayer\webserver\wizard\socket\model\game\GameJoinOrLeaveMessage.class
de\mayer\einmayer\webserver\dao\wizard\WizardGameStat.class
de\mayer\einmayer\webserver\wizard\socket\model\Message.class
de\mayer\einmayer\webserver\api\EinkaufslisteApi.class
de\mayer\einmayer\webserver\dao\wizard\WizardZahl.class
de\mayer\einmayer\webserver\dao\EinkaufslisteItem.class
de\mayer\einmayer\webserver\dao\wizard\WizardKarte.class
de\mayer\einmayer\webserver\wizard\socket\model\game\GameChatMessageContent.class
de\mayer\einmayer\webserver\security\UserPrincipal.class
de\mayer\einmayer\webserver\dao\UserRepo.class
de\mayer\einmayer\webserver\dao\EinkaufslisteRepo.class
de\mayer\einmayer\webserver\dao\wizard\WizardFarbe.class
de\mayer\einmayer\webserver\dao\EinkaufslisteItemId.class
de\mayer\einmayer\webserver\wizard\socket\model\MessageContent.class
de\mayer\einmayer\webserver\dao\EinkaufslisteItemRepo.class
de\mayer\einmayer\webserver\dao\User.class
de\mayer\einmayer\webserver\wizard\socket\Channels.class
de\mayer\einmayer\webserver\wizard\socket\model\game\GameMessageType.class
de\mayer\einmayer\webserver\dao\wizard\WizardKarteRepo.class
de\mayer\einmayer\webserver\dao\wizard\WizardGameRepo.class
de\mayer\einmayer\webserver\dao\ReminderDateRepo.class
de\mayer\einmayer\webserver\wizard\socket\model\game\GameChatMessage.class
de\mayer\einmayer\webserver\dao\ReminderDate.class
de\mayer\einmayer\webserver\security\SuccessHandler.class
de\mayer\einmayer\webserver\dao\wizard\WizardFarbeRepo.class
de\mayer\einmayer\webserver\dao\wizard\WizardGame.class
de\mayer\einmayer\webserver\wizard\socket\model\lobby\LobbyMessageType.class
de\mayer\einmayer\webserver\wizard\socket\model\ChatContent.class
de\mayer\einmayer\webserver\dao\wizard\WizardGameParticipantId.class
de\mayer\einmayer\webserver\AllgemeinerController.class
de\mayer\einmayer\webserver\wizard\socket\model\game\GameMessage.class
de\mayer\einmayer\webserver\api\ReminderApi.class
de\mayer\einmayer\webserver\dao\Einkaufsliste.class
de\mayer\einmayer\webserver\wizard\socket\model\lobby\LobbyCreateGameMessage.class
